[
    {
       "confidenceMeasurement":{
          "@class":"com.apporchid.core.heuristics.NarrativeConfidence",
          "narrativeDescriptions":[
             {
                "@class":"com.apporchid.core.heuristics.NarrativeConfidenceDescription",
                "confidenceLevel":"MODERATE",
                "score":4.0,
                "narrativeDescription":"Website [https://www.eastbrunswick.org] Title matches with strong matching words with max no of occurences -> 0"
             },
             {
                "@class":"com.apporchid.core.heuristics.NarrativeConfidenceDescription",
                "confidenceLevel":"SUPER",
                "score":8.0,
                "narrativeDescription":"Website [https://www.eastbrunswick.org/] Title matches with strong matching words with max no of occurences -> 0"
             },
             {
                "@class":"com.apporchid.core.heuristics.NarrativeConfidenceDescription",
                "confidenceLevel":"FULL",
                "score":10.0,
                "narrativeDescription":"Website [https://www.eastbrunswick.org] Title matches with strong matching words with max no of occurences -> 0"
             },
             {
                "@class":"com.apporchid.core.heuristics.NarrativeConfidenceDescription",
                "confidenceLevel":"FULL",
                "score":10.0,
                "narrativeDescription":"Website [https://www.eastbrunswick.org/content/202/] Title matches with strong matching words with max no of occurences -> 0"
             }
          ],
          "confidenceScoreNormalizer":{
             "@class":"com.apporchid.core.heuristics.LinearScoreNormalizer"
          },
          "confidenceLevel":"FULL"
       },
       "measurableObject":"https://www.eastbrunswick.org"
    },
    {
      "confidenceMeasurement":{
          "@class":"com.apporchid.core.heuristics.NarrativeConfidence",
          "narrativeDescriptions":[
             {
                "@class":"com.apporchid.core.heuristics.NarrativeConfidenceDescription",
                "confidenceLevel":"MODERATE",
                "score":4.0,
                "narrativeDescription":"Website [https://www.ebpl.org] Title matches with strong matching words with max no of occurences -> 0"
             },
             {
                "@class":"com.apporchid.core.heuristics.NarrativeConfidenceDescription",
                "confidenceLevel":"FULL",
                "score":10.0,
                "narrativeDescription":"Verified that the website [https://www.ebpl.org/main/community.cfm] is accessible and validated the content with matching words for water or sewer with max no of occurences -> 13"
             }
          ],
          "confidenceScoreNormalizer":{
             "@class":"com.apporchid.core.heuristics.LinearScoreNormalizer"
          },
          "confidenceLevel":"FULL"
       },
       "measurableObject":"https://www.ebpl.org"
    }, {
        "confidenceMeasurement":{
           "@class":"com.apporchid.core.heuristics.NarrativeConfidence",
           "narrativeDescriptions":[
              {
                 "@class":"com.apporchid.core.heuristics.NarrativeConfidenceDescription",
                 "confidenceLevel":"MODERATE",
                 "score":4.0,
                 "narrativeDescription":"Website [https://www.eastbrunswick.org] Title matches with strong matching words with max no of occurences -> 0"
              },
              {
                 "@class":"com.apporchid.core.heuristics.NarrativeConfidenceDescription",
                 "confidenceLevel":"SUPER",
                 "score":8.0,
                 "narrativeDescription":"Website [https://www.eastbrunswick.org/] Title matches with strong matching words with max no of occurences -> 0"
              },
              {
                 "@class":"com.apporchid.core.heuristics.NarrativeConfidenceDescription",
                 "confidenceLevel":"FULL",
                 "score":10.0,
                 "narrativeDescription":"Website [https://www.eastbrunswick.org] Title matches with strong matching words with max no of occurences -> 0"
              },
              {
                 "@class":"com.apporchid.core.heuristics.NarrativeConfidenceDescription",
                 "confidenceLevel":"FULL",
                 "score":10.0,
                 "narrativeDescription":"Website [https://www.eastbrunswick.org/content/202/] Title matches with strong matching words with max no of occurences -> 0"
              }
           ],
           "confidenceScoreNormalizer":{
              "@class":"com.apporchid.core.heuristics.LinearScoreNormalizer"
           },
           "confidenceLevel":"FULL"
        },
        "measurableObject":"https://www.eastbrunswick.org"
     },
     {
       "confidenceMeasurement":{
           "@class":"com.apporchid.core.heuristics.NarrativeConfidence",
           "narrativeDescriptions":[
              {
                 "@class":"com.apporchid.core.heuristics.NarrativeConfidenceDescription",
                 "confidenceLevel":"MODERATE",
                 "score":4.0,
                 "narrativeDescription":"Website [https://www.ebpl.org] Title matches with strong matching words with max no of occurences -> 0"
              },
              {
                 "@class":"com.apporchid.core.heuristics.NarrativeConfidenceDescription",
                 "confidenceLevel":"FULL",
                 "score":10.0,
                 "narrativeDescription":"Verified that the website [https://www.ebpl.org/main/community.cfm] is accessible and validated the content with matching words for water or sewer with max no of occurences -> 13"
              }
           ],
           "confidenceScoreNormalizer":{
              "@class":"com.apporchid.core.heuristics.LinearScoreNormalizer"
           },
           "confidenceLevel":"FULL"
        },
        "measurableObject":"https://www.ebpl.org"
     }
]